
## сравнение численного и точного решений в шобоборическом приближении в случае круга в круге.
t = 0:0.1:149.9;
R20 = 100;
R10 = 50;
G=2;
mn=4;

d0 = R20 - R10;
d = d0 + G * t/(2*mn);
S = pi*(R20^2 - R10^2);

R2 = 0.5 * (S./(pi*d) + d);
R1= 0.5*(S./(pi*d) - d);


R1real=[50.0000,49.9499,49.8998,49.8497,49.7997,49.7498,49.6998,49.6499,49.6001,49.5503,49.5005,49.4507,49.4010,49.3513,49.3017,49.2521,49.2025,49.1530,49.1035,49.0541,49.0046,48.9553,48.9059,48.8566,48.8073,48.7581,48.7089,48.6597,48.6106,48.5615,48.5125,48.4635,48.4145,48.3655,48.3166,48.2677,48.2189,48.1701,48.1213,48.0726,48.0239,47.9753,47.9266,47.8780,47.8295,47.7810,47.7325,47.6840,47.6356,47.5872,47.5389,47.4906,47.4423,47.3941,47.3459,47.2977,47.2496,47.2015,47.1534,47.1054,47.0574,47.0094,46.9615,46.9136,46.8657,46.8179,46.7701,46.7224,46.6746,46.6269,46.5793,46.5317,46.4841,46.4365,46.3890,46.3415,46.2941,46.2467,46.1993,46.1519,46.1046,46.0573,46.0101,45.9629,45.9157,45.8685,45.8214,45.7743,45.7273,45.6803,45.6333,45.5863,45.5394,45.4925,45.4457,45.3989,45.3521,45.3053,45.2586,45.2119,45.1652,45.1186,45.0720,45.0255,44.9789,44.9325,44.8860,44.8396,44.7932,44.7468,44.7005,44.6542,44.6079,44.5617,44.5155,44.4693,44.4231,44.3770,44.3310,44.2849,44.2389,44.1929,44.1470,44.1010,44.0552,44.0093,43.9635,43.9177,43.8719,43.8262,43.7805,43.7348,43.6892,43.6436,43.5980,43.5524,43.5069,43.4614,43.4160,43.3706,43.3252,43.2798,43.2345,43.1892,43.1439,43.0987,43.0535,43.0083,42.9632,42.9180,42.8730,42.8279,42.7829,42.7379,42.6929,42.6480,42.6031,42.5582,42.5134,42.4686,42.4238,42.3790,42.3343,42.2896,42.2449,42.2003,42.1557,42.1111,42.0666,42.0221,41.9776,41.9331,41.8887,41.8443,41.7999,41.7556,41.7113,41.6670,41.6227,41.5785,41.5343,41.4901,41.4460,41.4019,41.3578,41.3138,41.2698,41.2258,41.1818,41.1379,41.0940,41.0501,41.0062,40.9624,40.9186,40.8749,40.8311,40.7874,40.7438,40.7001,40.6565,40.6129,40.5693,40.5258,40.4823,40.4388,40.3954,40.3519,40.3085,40.2652,40.2218,40.1785,40.1352,40.0920,40.0488,40.0056,39.9624,39.9192,39.8761,39.8330,39.7900,39.7469,39.7039,39.6610,39.6180,39.5751,39.5322,39.4893,39.4465,39.4037,39.3609,39.3181,39.2754,39.2327,39.1900,39.1473,39.1047,39.0621,39.0195,38.9770,38.9345,38.8920,38.8495,38.8071,38.7647,38.7223,38.6799,38.6376,38.5953,38.5530,38.5108,38.4685,38.4263,38.3842,38.3420,38.2999,38.2578,38.2157,38.1737,38.1317,38.0897,38.0477,38.0058,37.9639,37.9220,37.8802,37.8383,37.7965,37.7547,37.7130,37.6712,37.6295,37.5879,37.5462,37.5046,37.4630,37.4214,37.3799,37.3383,37.2968,37.2554,37.2139,37.1725,37.1311,37.0897,37.0484,37.0071,36.9658,36.9245,36.8832,36.8420,36.8008,36.7597,36.7185,36.6774,36.6363,36.5952,36.5542,36.5132,36.4722,36.4312,36.3902,36.3493,36.3084,36.2676,36.2267,36.1859,36.1451,36.1043,36.0636,36.0228,35.9821,35.9415,35.9008,35.8602,35.8196,35.7790,35.7384,35.6979,35.6574,35.6169,35.5765,35.5360,35.4956,35.4552,35.4149,35.3745,35.3342,35.2939,35.2537,35.2134,35.1732,35.1330,35.0928,35.0527,35.0126,34.9725,34.9324,34.8923,34.8523,34.8123,34.7723,34.7324,34.6924,34.6525,34.6126,34.5728,34.5329,34.4931,34.4533,34.4135,34.3738,34.3341,34.2944,34.2547,34.2150,34.1754,34.1358,34.0962,34.0566,34.0171,33.9776,33.9381,33.8986,33.8592,33.8197,33.7803,33.7409,33.7016,33.6622,33.6229,33.5836,33.5444,33.5051,33.4659,33.4267,33.3875,33.3484,33.3092,33.2701,33.2310,33.1920,33.1529,33.1139,33.0749,33.0359,32.9970,32.9580,32.9191,32.8802,32.8414,32.8025,32.7637,32.7249,32.6861,32.6474,32.6086,32.5699,32.5312,32.4926,32.4539,32.4153,32.3767,32.3381,32.2996,32.2610,32.2225,32.1840,32.1455,32.1071,32.0687,32.0302,31.9919,31.9535,31.9151,31.8768,31.8385,31.8002,31.7620,31.7237,31.6855,31.6473,31.6092,31.5710,31.5329,31.4948,31.4567,31.4186,31.3806,31.3425,31.3045,31.2665,31.2286,31.1906,31.1527,31.1148,31.0769,31.0391,31.0012,30.9634,30.9256,30.8879,30.8501,30.8124,30.7747,30.7370,30.6993,30.6616,30.6240,30.5864,30.5488,30.5112,30.4737,30.4362,30.3987,30.3612,30.3237,30.2863,30.2488,30.2114,30.1740,30.1367,30.0993,30.0620,30.0247,29.9874,29.9501,29.9129,29.8757,29.8385,29.8013,29.7641,29.7270,29.6898,29.6527,29.6157,29.5786,29.5415,29.5045,29.4675,29.4305,29.3936,29.3566,29.3197,29.2828,29.2459,29.2090,29.1722,29.1353,29.0985,29.0617,29.0250,28.9882,28.9515,28.9148,28.8781,28.8414,28.8048,28.7681,28.7315,28.6949,28.6583,28.6218,28.5852,28.5487,28.5122,28.4757,28.4393,28.4028,28.3664,28.3300,28.2936,28.2573,28.2209,28.1846,28.1483,28.1120,28.0757,28.0395,28.0032,27.9670,27.9308,27.8946,27.8585,27.8224,27.7862,27.7501,27.7140,27.6780,27.6419,27.6059,27.5699,27.5339,27.4979,27.4620,27.4260,27.3901,27.3542,27.3184,27.2825,27.2467,27.2108,27.1750,27.1392,27.1035,27.0677,27.0320,26.9963,26.9606,26.9249,26.8892,26.8536,26.8180,26.7824,26.7468,26.7112,26.6757,26.6401,26.6046,26.5691,26.5336,26.4982,26.4627,26.4273,26.3919,26.3565,26.3211,26.2858,26.2505,26.2151,26.1798,26.1446,26.1093,26.0740,26.0388,26.0036,25.9684,25.9332,25.8981,25.8629,25.8278,25.7927,25.7576,25.7225,25.6875,25.6524,25.6174,25.5824,25.5474,25.5125,25.4775,25.4426,25.4077,25.3728,25.3379,25.3030,25.2682,25.2334,25.1986,25.1638,25.1290,25.0942,25.0595,25.0248,24.9900,24.9554,24.9207,24.8860,24.8514,24.8168,24.7822,24.7476,24.7130,24.6784,24.6439,24.6094,24.5749,24.5404,24.5059,24.4715,24.4370,24.4026,24.3682,24.3338,24.2994,24.2651,24.2307,24.1964,24.1621,24.1278,24.0936,24.0593,24.0251,23.9908,23.9566,23.9225,23.8883,23.8541,23.8200,23.7859,23.7518,23.7177,23.6836,23.6495,23.6155,23.5815,23.5475,23.5135,23.4795,23.4455,23.4116,23.3777,23.3437,23.3099,23.2760,23.2421,23.2083,23.1744,23.1406,23.1068,23.0730,23.0393,23.0055,22.9718,22.9381,22.9044,22.8707,22.8370,22.8034,22.7697,22.7361,22.7025,22.6689,22.6353,22.6018,22.5682,22.5347,22.5012,22.4677,22.4342,22.4007,22.3673,22.3338,22.3004,22.2670,22.2336,22.2003,22.1669,22.1336,22.1002,22.0669,22.0336,22.0003,21.9671,21.9338,21.9006,21.8674,21.8342,21.8010,21.7678,21.7347,21.7015,21.6684,21.6353,21.6022,21.5691,21.5360,21.5030,21.4700,21.4369,21.4039,21.3710,21.3380,21.3050,21.2721,21.2391,21.2062,21.1733,21.1405,21.1076,21.0747,21.0419,21.0091,20.9763,20.9435,20.9107,20.8779,20.8452,20.8124,20.7797,20.7470,20.7143,20.6817,20.6490,20.6163,20.5837,20.5511,20.5185,20.4859,20.4533,20.4208,20.3882,20.3557,20.3232,20.2907,20.2582,20.2257,20.1933,20.1608,20.1284,20.0960,20.0636,20.0312,19.9989,19.9665,19.9342,19.9018,19.8695,19.8372,19.8050,19.7727,19.7404,19.7082,19.6760,19.6438,19.6116,19.5794,19.5472,19.5151,19.4829,19.4508,19.4187,19.3866,19.3545,19.3224,19.2904,19.2583,19.2263,19.1943,19.1623,19.1303,19.0984,19.0664,19.0345,19.0025,18.9706,18.9387,18.9068,18.8750,18.8431,18.8113,18.7794,18.7476,18.7158,18.6840,18.6522,18.6205,18.5887,18.5570,18.5253,18.4936,18.4619,18.4302,18.3985,18.3669,18.3353,18.3036,18.2720,18.2404,18.2088,18.1773,18.1457,18.1142,18.0826,18.0511,18.0196,17.9881,17.9567,17.9252,17.8937,17.8623,17.8309,17.7995,17.7681,17.7367,17.7053,17.6740,17.6426,17.6113,17.5800,17.5487,17.5174,17.4861,17.4549,17.4236,17.3924,17.3612,17.3300,17.2988,17.2676,17.2364,17.2053,17.1741,17.1430,17.1119,17.0808,17.0497,17.0186,16.9875,16.9565,16.9255,16.8944,16.8634,16.8324,16.8014,16.7705,16.7395,16.7086,16.6776,16.6467,16.6158,16.5849,16.5540,16.5231,16.4923,16.4614,16.4306,16.3998,16.3690,16.3382,16.3074,16.2766,16.2459,16.2151,16.1844,16.1537,16.1230,16.0923,16.0616,16.0310,16.0003,15.9697,15.9390,15.9084,15.8778,15.8472,15.8166,15.7861,15.7555,15.7250,15.6945,15.6639,15.6334,15.6030,15.5725,15.5420,15.5116,15.4811,15.4507,15.4203,15.3899,15.3595,15.3291,15.2987,15.2684,15.2380,15.2077,15.1774,15.1471,15.1168,15.0865,15.0562,15.0260,14.9957,14.9655,14.9353,14.9051,14.8749,14.8447,14.8145,14.7844,14.7542,14.7241,14.6940,14.6639,14.6338,14.6037,14.5736,14.5435,14.5135,14.4834,14.4534,14.4234,14.3934,14.3634,14.3334,14.3035,14.2735,14.2436,14.2136,14.1837,14.1538,14.1239,14.0940,14.0641,14.0343,14.0044,13.9746,13.9448,13.9150,13.8852,13.8554,13.8256,13.7958,13.7661,13.7363,13.7066,13.6769,13.6472,13.6175,13.5878,13.5581,13.5285,13.4988,13.4692,13.4395,13.4099,13.3803,13.3507,13.3211,13.2916,13.2620,13.2325,13.2029,13.1734,13.1439,13.1144,13.0849,13.0554,13.0260,12.9965,12.9671,12.9376,12.9082,12.8788,12.8494,12.8200,12.7907,12.7613,12.7319,12.7026,12.6733,12.6439,12.6146,12.5853,12.5561,12.5268,12.4975,12.4683,12.4390,12.4098,12.3806,12.3514,12.3222,12.2930,12.2638,12.2347,12.2055,12.1764,12.1472,12.1181,12.0890,12.0599,12.0308,12.0018,11.9727,11.9436,11.9146,11.8856,11.8566,11.8275,11.7985,11.7696,11.7406,11.7116,11.6827,11.6537,11.6248,11.5959,11.5670,11.5381,11.5092,11.4803,11.4514,11.4226,11.3937,11.3649,11.3361,11.3073,11.2785,11.2497,11.2209,11.1921,11.1634,11.1346,11.1059,11.0771,11.0484,11.0197,10.9910,10.9623,10.9337,10.9050,10.8764,10.8477,10.8191,10.7905,10.7618,10.7332,10.7047,10.6761,10.6475,10.6190,10.5904,10.5619,10.5333,10.5048,10.4763,10.4478,10.4193,10.3909,10.3624,10.3339,10.3055,10.2771,10.2487,10.2202,10.1918,10.1634,10.1351,10.1067,10.0783,10.0500,10.0216,9.9933,9.9650,9.9367,9.9084,9.8801,9.8518,9.8236,9.7953,9.7670,9.7388,9.7106,9.6824,9.6542,9.6260,9.5978,9.5696,9.5414,9.5133,9.4851,9.4570,9.4289,9.4008,9.3727,9.3446,9.3165,9.2884,9.2603,9.2323,9.2042,9.1762,9.1482,9.1202,9.0921,9.0642,9.0362,9.0082,8.9802,8.9523,8.9243,8.8964,8.8685,8.8405,8.8126,8.7847,8.7569,8.7290,8.7011,8.6733,8.6454,8.6176,8.5897,8.5619,8.5341,8.5063,8.4785,8.4508,8.4230,8.3952,8.3675,8.3397,8.3120,8.2843,8.2566,8.2289,8.2012,8.1735,8.1458,8.1182,8.0905,8.0629,8.0352,8.0076,7.9800,7.9524,7.9248,7.8972,7.8696,7.8421,7.8145,7.7870,7.7594,7.7319,7.7044,7.6769,7.6494,7.6219,7.5944,7.5669,7.5395,7.5120,7.4846,7.4571,7.4297,7.4023,7.3749,7.3475,7.3201,7.2927,7.2654,7.2380,7.2107,7.1833,7.1560,7.1287,7.1014,7.0741,7.0468,7.0195,6.9922,6.9649,6.9377,6.9104,6.8832,6.8560,6.8288,6.8015,6.7743,6.7472,6.7200,6.6928,6.6656,6.6385,6.6113,6.5842,6.5571,6.5300,6.5028,6.4757,6.4487,6.4216,6.3945,6.3674,6.3404,6.3133,6.2863,6.2593,6.2323,6.2053,6.1783,6.1513,6.1243,6.0973,6.0703,6.0434,6.0164,5.9895,5.9626,5.9357,5.9088,5.8819,5.8550,5.8281,5.8012,5.7743,5.7475,5.7206,5.6938,5.6670,5.6401,5.6133,5.5865,5.5597,5.5330,5.5062,5.4794,5.4527,5.4259,5.3992,5.3724,5.3457,5.3190,5.2923,5.2656,5.2389,5.2122,5.1855,5.1589,5.1322,5.1056,5.0790,5.0523,5.0257,4.9991,4.9725,4.9459,4.9193,4.8927,4.8662,4.8396,4.8131,4.7865,4.7600,4.7335,4.7070,4.6805,4.6540,4.6275,4.6010,4.5745,4.5481,4.5216,4.4952,4.4687,4.4423,4.4159,4.3895,4.3631,4.3367,4.3103,4.2839,4.2575,4.2312,4.2048,4.1785,4.1521,4.1258,4.0995,4.0732,4.0469,4.0206,3.9943,3.9680,3.9418,3.9155,3.8893,3.8630,3.8368,3.8106,3.7843,3.7581,3.7319,3.7057,3.6796,3.6534,3.6272,3.6011,3.5749,3.5488,3.5226,3.4965,3.4704,3.4443,3.4182,3.3921,3.3660,3.3399,3.3139,3.2878,3.2618,3.2357,3.2097,3.1837,3.1577,3.1317,3.1057,3.0797,3.0537,3.0277,3.0017,2.9758,2.9498,2.9239,2.8980,2.8720,2.8461,2.8202,2.7943,2.7684,2.7425,2.7167,2.6908,2.6649,2.6391,2.6132,2.5874,2.5616,2.5358,2.5100,2.4842,2.4584,2.4326,2.4068,2.3810,2.3553,2.3295,2.3038,2.2781,2.2523,2.2266,2.2009,2.1752,2.1495,2.1238,2.0982,2.0725,2.0468,2.0212,1.9956,1.9699,1.9443,1.9187,1.8931,1.8675,1.8419,1.8163,1.7908,1.7652,1.7396,1.7141,1.6886,1.6630,1.6375,1.6120,1.5865,1.5610,1.5355,1.5101,1.4846,1.4592,1.4337,1.4083,1.3829,1.3574,1.3320,1.3067,1.2813,1.2559,1.2305,1.2052,1.1799,1.1545,1.1292,1.1039,1.0786,1.0533,1.0281,1.0028,0.9776,0.9524,0.9271,0.9019,0.8768,0.8516,0.8265,0.8013,0.7762,0.7511,0.7261,0.7010,0.6760,0.6510,0.6261,0.6011,0.5763,0.5514,0.5266,0.5018,0.4771,0.4525,0.4279,0.4034,0.3791,0.3548,0.3307,0.3068,0.2830,0.2596,0.2365,0.2139,0.1919,0.1708,0.1510,0.1329,0.1174,0.1058,0.0992,0.0987,0.1045,0.1155,0.1305,0.1482,0.1306,0.1483,0.1307,0.1484,0.1309,0.1486,0.1310,0.1487,0.1311,0.1488,0.1313,0.1489,0.1314,0.1491,0.1315,0.1492,0.1316,0.1493,0.1318,0.1495,0.1319,0.1496,0.1320,0.1497,0.1322,0.1499,0.1323,0.1500,0.1324,0.1501,0.1326,0.1502,0.1327,0.1504,0.1328];
R2real=[100.0000,99.9751,99.9502,99.9253,99.9005,99.8757,99.8510,99.8263,99.8016,99.7770,99.7524,99.7278,99.7033,99.6788,99.6544,99.6300,99.6056,99.5813,99.5570,99.5327,99.5085,99.4843,99.4601,99.4360,99.4119,99.3879,99.3639,99.3399,99.3160,99.2921,99.2682,99.2444,99.2206,99.1968,99.1731,99.1494,99.1258,99.1021,99.0786,99.0550,99.0315,99.0080,98.9846,98.9612,98.9378,98.9145,98.8912,98.8679,98.8447,98.8215,98.7983,98.7752,98.7521,98.7291,98.7061,98.6831,98.6601,98.6372,98.6143,98.5915,98.5687,98.5459,98.5231,98.5004,98.4777,98.4551,98.4325,98.4099,98.3874,98.3649,98.3424,98.3200,98.2976,98.2752,98.2529,98.2306,98.2083,98.1860,98.1638,98.1417,98.1195,98.0974,98.0754,98.0533,98.0313,98.0094,97.9874,97.9655,97.9436,97.9218,97.9000,97.8782,97.8565,97.8348,97.8131,97.7915,97.7699,97.7483,97.7267,97.7052,97.6837,97.6623,97.6409,97.6195,97.5982,97.5768,97.5556,97.5343,97.5131,97.4919,97.4707,97.4496,97.4285,97.4075,97.3864,97.3654,97.3445,97.3235,97.3026,97.2817,97.2609,97.2401,97.2193,97.1986,97.1779,97.1572,97.1365,97.1159,97.0953,97.0748,97.0542,97.0337,97.0133,96.9928,96.9724,96.9521,96.9317,96.9114,96.8911,96.8709,96.8507,96.8305,96.8103,96.7902,96.7701,96.7500,96.7300,96.7100,96.6900,96.6701,96.6501,96.6303,96.6104,96.5906,96.5708,96.5510,96.5313,96.5116,96.4919,96.4723,96.4527,96.4331,96.4135,96.3940,96.3745,96.3550,96.3356,96.3162,96.2968,96.2775,96.2581,96.2388,96.2196,96.2004,96.1812,96.1620,96.1428,96.1237,96.1046,96.0856,96.0665,96.0476,96.0286,96.0096,95.9907,95.9718,95.9530,95.9342,95.9154,95.8966,95.8779,95.8591,95.8405,95.8218,95.8032,95.7846,95.7660,95.7475,95.7290,95.7105,95.6920,95.6736,95.6552,95.6368,95.6185,95.6002,95.5819,95.5636,95.5454,95.5272,95.5090,95.4909,95.4727,95.4546,95.4366,95.4185,95.4005,95.3825,95.3646,95.3467,95.3288,95.3109,95.2930,95.2752,95.2574,95.2397,95.2219,95.2042,95.1865,95.1689,95.1513,95.1337,95.1161,95.0985,95.0810,95.0635,95.0461,95.0286,95.0112,94.9938,94.9765,94.9591,94.9418,94.9246,94.9073,94.8901,94.8729,94.8557,94.8386,94.8214,94.8043,94.7873,94.7702,94.7532,94.7362,94.7193,94.7023,94.6854,94.6685,94.6517,94.6348,94.6180,94.6013,94.5845,94.5678,94.5511,94.5344,94.5177,94.5011,94.4845,94.4679,94.4514,94.4349,94.4184,94.4019,94.3855,94.3690,94.3526,94.3363,94.3199,94.3036,94.2873,94.2710,94.2548,94.2386,94.2224,94.2062,94.1901,94.1740,94.1579,94.1418,94.1258,94.1097,94.0938,94.0778,94.0618,94.0459,94.0300,94.0142,93.9983,93.9825,93.9667,93.9509,93.9352,93.9195,93.9038,93.8881,93.8725,93.8568,93.8412,93.8257,93.8101,93.7946,93.7791,93.7636,93.7481,93.7327,93.7173,93.7019,93.6866,93.6712,93.6559,93.6407,93.6254,93.6102,93.5949,93.5798,93.5646,93.5494,93.5343,93.5192,93.5042,93.4891,93.4741,93.4591,93.4441,93.4292,93.4142,93.3993,93.3845,93.3696,93.3548,93.3400,93.3252,93.3104,93.2957,93.2809,93.2662,93.2516,93.2369,93.2223,93.2077,93.1931,93.1786,93.1640,93.1495,93.1350,93.1206,93.1061,93.0917,93.0773,93.0629,93.0486,93.0343,93.0200,93.0057,92.9914,92.9772,92.9630,92.9488,92.9346,92.9205,92.9063,92.8922,92.8782,92.8641,92.8501,92.8361,92.8221,92.8081,92.7942,92.7802,92.7663,92.7525,92.7386,92.7248,92.7110,92.6972,92.6834,92.6696,92.6559,92.6422,92.6285,92.6149,92.6012,92.5876,92.5740,92.5605,92.5469,92.5334,92.5199,92.5064,92.4929,92.4795,92.4661,92.4527,92.4393,92.4260,92.4126,92.3993,92.3860,92.3728,92.3595,92.3463,92.3331,92.3199,92.3067,92.2936,92.2805,92.2674,92.2543,92.2412,92.2282,92.2152,92.2022,92.1892,92.1763,92.1634,92.1505,92.1376,92.1247,92.1119,92.0990,92.0862,92.0734,92.0607,92.0479,92.0352,92.0225,92.0098,91.9972,91.9845,91.9719,91.9593,91.9468,91.9342,91.9217,91.9092,91.8967,91.8842,91.8717,91.8593,91.8469,91.8345,91.8221,91.8098,91.7974,91.7851,91.7728,91.7606,91.7483,91.7361,91.7239,91.7117,91.6995,91.6874,91.6752,91.6631,91.6510,91.6390,91.6269,91.6149,91.6029,91.5909,91.5789,91.5670,91.5550,91.5431,91.5312,91.5194,91.5075,91.4957,91.4839,91.4721,91.4603,91.4485,91.4368,91.4251,91.4134,91.4017,91.3901,91.3784,91.3668,91.3552,91.3436,91.3321,91.3205,91.3090,91.2975,91.2860,91.2746,91.2631,91.2517,91.2403,91.2289,91.2175,91.2062,91.1949,91.1835,91.1723,91.1610,91.1497,91.1385,91.1273,91.1161,91.1049,91.0937,91.0826,91.0715,91.0604,91.0493,91.0382,91.0272,91.0162,91.0051,90.9942,90.9832,90.9722,90.9613,90.9504,90.9395,90.9286,90.9177,90.9069,90.8961,90.8853,90.8745,90.8637,90.8530,90.8422,90.8315,90.8208,90.8101,90.7995,90.7889,90.7782,90.7676,90.7570,90.7465,90.7359,90.7254,90.7149,90.7044,90.6939,90.6834,90.6730,90.6626,90.6522,90.6418,90.6314,90.6211,90.6107,90.6004,90.5901,90.5798,90.5696,90.5593,90.5491,90.5389,90.5287,90.5185,90.5084,90.4982,90.4881,90.4780,90.4679,90.4579,90.4478,90.4378,90.4278,90.4178,90.4078,90.3978,90.3879,90.3779,90.3680,90.3581,90.3483,90.3384,90.3286,90.3187,90.3089,90.2991,90.2894,90.2796,90.2699,90.2602,90.2504,90.2408,90.2311,90.2214,90.2118,90.2022,90.1926,90.1830,90.1734,90.1639,90.1543,90.1448,90.1353,90.1258,90.1164,90.1069,90.0975,90.0881,90.0787,90.0693,90.0599,90.0506,90.0413,90.0319,90.0226,90.0134,90.0041,89.9948,89.9856,89.9764,89.9672,89.9580,89.9489,89.9397,89.9306,89.9215,89.9124,89.9033,89.8942,89.8852,89.8761,89.8671,89.8581,89.8491,89.8401,89.8312,89.8223,89.8133,89.8044,89.7955,89.7867,89.7778,89.7690,89.7602,89.7513,89.7426,89.7338,89.7250,89.7163,89.7076,89.6988,89.6901,89.6815,89.6728,89.6642,89.6555,89.6469,89.6383,89.6297,89.6212,89.6126,89.6041,89.5956,89.5870,89.5786,89.5701,89.5616,89.5532,89.5448,89.5364,89.5280,89.5196,89.5112,89.5029,89.4945,89.4862,89.4779,89.4696,89.4614,89.4531,89.4449,89.4366,89.4284,89.4202,89.4121,89.4039,89.3958,89.3876,89.3795,89.3714,89.3633,89.3553,89.3472,89.3392,89.3311,89.3231,89.3151,89.3072,89.2992,89.2912,89.2833,89.2754,89.2675,89.2596,89.2517,89.2439,89.2360,89.2282,89.2204,89.2126,89.2048,89.1970,89.1893,89.1815,89.1738,89.1661,89.1584,89.1507,89.1431,89.1354,89.1278,89.1202,89.1126,89.1050,89.0974,89.0899,89.0823,89.0748,89.0673,89.0598,89.0523,89.0448,89.0373,89.0299,89.0225,89.0151,89.0077,89.0003,88.9929,88.9855,88.9782,88.9709,88.9636,88.9563,88.9490,88.9417,88.9345,88.9272,88.9200,88.9128,88.9056,88.8984,88.8912,88.8841,88.8769,88.8698,88.8627,88.8556,88.8485,88.8414,88.8344,88.8273,88.8203,88.8133,88.8063,88.7993,88.7924,88.7854,88.7785,88.7715,88.7646,88.7577,88.7508,88.7440,88.7371,88.7303,88.7234,88.7166,88.7098,88.7030,88.6962,88.6895,88.6827,88.6760,88.6693,88.6626,88.6559,88.6492,88.6425,88.6359,88.6292,88.6226,88.6160,88.6094,88.6028,88.5963,88.5897,88.5832,88.5766,88.5701,88.5636,88.5571,88.5507,88.5442,88.5378,88.5313,88.5249,88.5185,88.5121,88.5057,88.4994,88.4930,88.4867,88.4803,88.4740,88.4677,88.4614,88.4552,88.4489,88.4427,88.4364,88.4302,88.4240,88.4178,88.4116,88.4055,88.3993,88.3932,88.3871,88.3809,88.3748,88.3688,88.3627,88.3566,88.3506,88.3445,88.3385,88.3325,88.3265,88.3205,88.3146,88.3086,88.3027,88.2967,88.2908,88.2849,88.2790,88.2731,88.2673,88.2614,88.2556,88.2497,88.2439,88.2381,88.2323,88.2266,88.2208,88.2151,88.2093,88.2036,88.1979,88.1922,88.1865,88.1808,88.1752,88.1695,88.1639,88.1582,88.1526,88.1470,88.1415,88.1359,88.1303,88.1248,88.1192,88.1137,88.1082,88.1027,88.0972,88.0917,88.0863,88.0808,88.0754,88.0700,88.0646,88.0592,88.0538,88.0484,88.0430,88.0377,88.0324,88.0270,88.0217,88.0164,88.0111,88.0059,88.0006,87.9954,87.9901,87.9849,87.9797,87.9745,87.9693,87.9641,87.9589,87.9538,87.9486,87.9435,87.9384,87.9333,87.9282,87.9231,87.9181,87.9130,87.9080,87.9029,87.8979,87.8929,87.8879,87.8829,87.8779,87.8730,87.8680,87.8631,87.8582,87.8533,87.8484,87.8435,87.8386,87.8337,87.8289,87.8240,87.8192,87.8144,87.8096,87.8048,87.8000,87.7952,87.7905,87.7857,87.7810,87.7763,87.7716,87.7669,87.7622,87.7575,87.7528,87.7482,87.7435,87.7389,87.7343,87.7297,87.7251,87.7205,87.7159,87.7114,87.7068,87.7023,87.6978,87.6932,87.6887,87.6842,87.6798,87.6753,87.6708,87.6664,87.6620,87.6575,87.6531,87.6487,87.6443,87.6400,87.6356,87.6312,87.6269,87.6226,87.6182,87.6139,87.6096,87.6053,87.6011,87.5968,87.5926,87.5883,87.5841,87.5799,87.5757,87.5715,87.5673,87.5631,87.5589,87.5548,87.5506,87.5465,87.5424,87.5383,87.5342,87.5301,87.5260,87.5220,87.5179,87.5139,87.5098,87.5058,87.5018,87.4978,87.4938,87.4898,87.4859,87.4819,87.4780,87.4740,87.4701,87.4662,87.4623,87.4584,87.4545,87.4507,87.4468,87.4430,87.4391,87.4353,87.4315,87.4277,87.4239,87.4201,87.4164,87.4126,87.4089,87.4051,87.4014,87.3977,87.3940,87.3903,87.3866,87.3829,87.3793,87.3756,87.3720,87.3683,87.3647,87.3611,87.3575,87.3539,87.3503,87.3468,87.3432,87.3397,87.3361,87.3326,87.3291,87.3256,87.3221,87.3186,87.3151,87.3117,87.3082,87.3048,87.3013,87.2979,87.2945,87.2911,87.2877,87.2843,87.2810,87.2776,87.2743,87.2709,87.2676,87.2643,87.2610,87.2577,87.2544,87.2511,87.2479,87.2446,87.2414,87.2381,87.2349,87.2317,87.2285,87.2253,87.2221,87.2189,87.2158,87.2126,87.2095,87.2063,87.2032,87.2001,87.1970,87.1939,87.1908,87.1877,87.1847,87.1816,87.1786,87.1756,87.1725,87.1695,87.1665,87.1635,87.1605,87.1576,87.1546,87.1517,87.1487,87.1458,87.1429,87.1399,87.1370,87.1341,87.1313,87.1284,87.1255,87.1227,87.1198,87.1170,87.1142,87.1114,87.1086,87.1058,87.1030,87.1002,87.0974,87.0947,87.0919,87.0892,87.0865,87.0838,87.0810,87.0783,87.0757,87.0730,87.0703,87.0677,87.0650,87.0624,87.0597,87.0571,87.0545,87.0519,87.0493,87.0467,87.0442,87.0416,87.0390,87.0365,87.0340,87.0314,87.0289,87.0264,87.0239,87.0214,87.0190,87.0165,87.0140,87.0116,87.0092,87.0067,87.0043,87.0019,86.9995,86.9971,86.9947,86.9924,86.9900,86.9876,86.9853,86.9830,86.9806,86.9783,86.9760,86.9737,86.9714,86.9691,86.9669,86.9646,86.9624,86.9601,86.9579,86.9557,86.9535,86.9513,86.9491,86.9469,86.9447,86.9425,86.9404,86.9382,86.9361,86.9339,86.9318,86.9297,86.9276,86.9255,86.9234,86.9214,86.9193,86.9172,86.9152,86.9131,86.9111,86.9091,86.9071,86.9051,86.9031,86.9011,86.8991,86.8971,86.8952,86.8932,86.8913,86.8894,86.8874,86.8855,86.8836,86.8817,86.8798,86.8780,86.8761,86.8742,86.8724,86.8705,86.8687,86.8669,86.8651,86.8633,86.8615,86.8597,86.8579,86.8561,86.8544,86.8526,86.8509,86.8491,86.8474,86.8457,86.8440,86.8423,86.8406,86.8389,86.8372,86.8356,86.8339,86.8323,86.8306,86.8290,86.8274,86.8258,86.8242,86.8226,86.8210,86.8194,86.8178,86.8163,86.8147,86.8132,86.8116,86.8101,86.8086,86.8071,86.8056,86.8041,86.8026,86.8011,86.7997,86.7982,86.7967,86.7953,86.7939,86.7924,86.7910,86.7896,86.7882,86.7868,86.7855,86.7841,86.7827,86.7814,86.7800,86.7787,86.7773,86.7760,86.7747,86.7734,86.7721,86.7708,86.7695,86.7683,86.7670,86.7657,86.7645,86.7633,86.7620,86.7608,86.7596,86.7584,86.7572,86.7560,86.7548,86.7536,86.7525,86.7513,86.7502,86.7490,86.7479,86.7468,86.7457,86.7446,86.7435,86.7424,86.7413,86.7402,86.7392,86.7381,86.7371,86.7360,86.7350,86.7340,86.7329,86.7319,86.7309,86.7299,86.7290,86.7280,86.7270,86.7261,86.7251,86.7242,86.7232,86.7223,86.7214,86.7205,86.7196,86.7187,86.7178,86.7169,86.7160,86.7152,86.7143,86.7135,86.7126,86.7118,86.7110,86.7102,86.7094,86.7086,86.7078,86.7070,86.7062,86.7054,86.7047,86.7039,86.7032,86.7025,86.7017,86.7010,86.7003,86.6996,86.6989,86.6982,86.6975,86.6969,86.6962,86.6955,86.6949,86.6942,86.6936,86.6930,86.6924,86.6918,86.6912,86.6906,86.6900,86.6894,86.6888,86.6883,86.6877,86.6872,86.6866,86.6861,86.6856,86.6850,86.6845,86.6840,86.6835,86.6830,86.6826,86.6821,86.6816,86.6812,86.6807,86.6803,86.6799,86.6794,86.6790,86.6786,86.6782,86.6778,86.6774,86.6770,86.6767,86.6763,86.6759,86.6756,86.6753,86.6749,86.6746,86.6743,86.6740,86.6737,86.6734,86.6731,86.6728,86.6725,86.6722,86.6720,86.6717,86.6715,86.6713,86.6710,86.6708,86.6706,86.6704,86.6702,86.6700,86.6698,86.6696,86.6695,86.6693,86.6691,86.6690,86.6688,86.6687,86.6686,86.6685,86.6684,86.6683,86.6682,86.6681,86.6680,86.6679,86.6678,86.6678,86.6677,86.6677,86.6677,86.6676,86.6676,86.6676,86.6676,86.6676,86.6676,86.6676,86.6676,86.6676,86.6677,86.6677,86.6677,86.6678,86.6678,86.6678,86.6679,86.6679,86.6679,86.6680,86.6680,86.6680,86.6681,86.6681,86.6681,86.6681,86.6682,86.6682,86.6682,86.6683,86.6683,86.6683,86.6684,86.6684,86.6684,86.6685,86.6685,86.6685,86.6686,86.6686,86.6686,86.6687,86.6687,86.6687,86.6688,86.6688];

plot (t, R2,"-b",t, R2real,"-.-r",t,R1,"-b",t, R1real,"-.-r" )
xlabel ("t");
ylabel ("R");

legend("exact","numerical")

text (t(700), R2(700)+5, "R2");
text (t(700), R1(700)+5, "R1");

############################# нахождение зависимости радиусов от времени для 2х кругов.

t = 0:0.1:43.3;

r1=[109.6395,109.4591,109.2796,109.1009,108.9230,108.7459,108.5697,108.3943,108.2196,108.0458,107.8727,107.7005,107.5290,107.3583,107.1884,107.0193,106.8509,106.6833,106.5165,106.3504,106.1850,106.0204,105.8566,105.6935,105.5311,105.3694,105.2085,105.0483,104.8888,104.7301,104.5720,104.4146,104.2580,104.1020,103.9468,103.7922,103.6383,103.4851,103.3326,103.1807,103.0296,102.8791,102.7292,102.5800,102.4315,102.2837,102.1364,101.9899,101.8440,101.6987,101.5540,101.4100,101.2666,101.1239,100.9818,100.8402,100.6994,100.5591,100.4194,100.2804,100.1419,100.0041,99.8668,99.7302,99.5941,99.4586,99.3238,99.1895,99.0557,98.9226,98.7900,98.6580,98.5266,98.3958,98.2655,98.1357,98.0066,97.8779,97.7499,97.6224,97.4954,97.3690,97.2431,97.1177,96.9929,96.8687,96.7449,96.6217,96.4990,96.3769,96.2552,96.1341,96.0135,95.8934,95.7738,95.6547,95.5362,95.4181,95.3005,95.1835,95.0669,94.9509,94.8353,94.7202,94.6056,94.4915,94.3779,94.2647,94.1520,94.0398,93.9281,93.8169,93.7061,93.5958,93.4859,93.3766,93.2677,93.1592,93.0512,92.9437,92.8366,92.7299,92.6237,92.5180,92.4127,92.3078,92.2034,92.0994,91.9959,91.8928,91.7901,91.6879,91.5861,91.4847,91.3838,91.2833,91.1831,91.0835,90.9842,90.8854,90.7869,90.6889,90.5913,90.4941,90.3973,90.3009,90.2050,90.1094,90.0142,89.9194,89.8251,89.7311,89.6375,89.5443,89.4515,89.3591,89.2671,89.1754,89.0842,88.9933,88.9028,88.8127,88.7230,88.6337,88.5447,88.4561,88.3679,88.2800,88.1925,88.1054,88.0187,87.9323,87.8463,87.7606,87.6753,87.5904,87.5058,87.4216,87.3377,87.2542,87.1710,87.0882,87.0058,86.9237,86.8419,86.7605,86.6794,86.5987,86.5183,86.4382,86.3585,86.2792,86.2001,86.1214,86.0431,85.9650,85.8873,85.8100,85.7329,85.6562,85.5798,85.5038,85.4280,85.3526,85.2775,85.2028,85.1283,85.0542,84.9804,84.9069,84.8337,84.7608,84.6883,84.6160,84.5441,84.4725,84.4012,84.3302,84.2595,84.1891,84.1190,84.0492,83.9797,83.9105,83.8416,83.7730,83.7048,83.6368,83.5691,83.5017,83.4346,83.3677,83.3012,83.2350,83.1690,83.1034,83.0380,82.9729,82.9082,82.8436,82.7794,82.7155,82.6518,82.5884,82.5253,82.4625,82.4000,82.3377,82.2757,82.2140,82.1526,82.0914,82.0305,81.9699,81.9096,81.8495,81.7897,81.7302,81.6709,81.6119,81.5532,81.4947,81.4365,81.3786,81.3209,81.2635,81.2063,81.1494,81.0928,81.0364,80.9803,80.9244,80.8688,80.8135,80.7584,80.7036,80.6490,80.5946,80.5406,80.4867,80.4332,80.3798,80.3268,80.2739,80.2213,80.1690,80.1169,80.0651,80.0135,79.9621,79.9110,79.8602,79.8095,79.7591,79.7090,79.6591,79.6094,79.5600,79.5108,79.4619,79.4132,79.3647,79.3165,79.2684,79.2207,79.1731,79.1258,79.0788,79.0319,78.9853,78.9389,78.8928,78.8469,78.8012,78.7557,78.7105,78.6655,78.6207,78.5761,78.5318,78.4877,78.4438,78.4001,78.3567,78.3135,78.2705,78.2277,78.1852,78.1428,78.1007,78.0588,78.0172,77.9757,77.9345,77.8934,77.8526,77.8120,77.7717,77.7315,77.6916,77.6518,77.6123,77.5730,77.5339,77.4950,77.4564,77.4179,77.3797,77.3416,77.3038,77.2662,77.2288,77.1916,77.1546,77.1178,77.0812,77.0448,77.0086,76.9727,76.9369,76.9014,76.8660,76.8309,76.7959,76.7612,76.7266,76.6923,76.6582,76.6242,76.5905,76.5570,76.5236,76.4905,76.4575,76.4248,76.3923,76.3599,76.3278,76.2958,76.2641,76.2325,76.2012,76.1700,76.1390,76.1083,76.0777,76.0473,76.0171,75.9871,75.9573,75.9277,75.8983,75.8690,75.8400,75.8111,75.7825,75.7540,75.7257,75.6977,75.6698,75.6420,75.6145,75.5872,75.5601,75.5331,75.5063,75.4798,75.4534,75.4272,75.4011,75.3753,75.3496,75.3242,75.2989,75.2738,75.2489,75.2242,75.1996,75.1753,75.1511,75.1271,75.1033,75.0797,75.0562,75.0330,75.0099,74.9870,74.9643,74.9417,74.9194,74.8972,74.8752,74.8534,74.8317];

r=[140.0400,139.8099,139.5809,139.3529,139.1260,138.9001,138.6752,138.4514,138.2286,138.0069,137.7861,137.5664,137.3476,137.1299,136.9131,136.6973,136.4825,136.2687,136.0558,135.8440,135.6330,135.4230,135.2140,135.0059,134.7988,134.5925,134.3872,134.1828,133.9794,133.7768,133.5752,133.3744,133.1746,132.9756,132.7775,132.5804,132.3840,132.1886,131.9940,131.8003,131.6074,131.4154,131.2243,131.0340,130.8445,130.6559,130.4681,130.2811,130.0949,129.9096,129.7250,129.5413,129.3584,129.1763,128.9950,128.8145,128.6347,128.4558,128.2776,128.1002,127.9236,127.7477,127.5726,127.3983,127.2247,127.0519,126.8798,126.7085,126.5379,126.3681,126.1990,126.0306,125.8629,125.6960,125.5298,125.3643,125.1995,125.0354,124.8720,124.7093,124.5474,124.3861,124.2255,124.0656,123.9064,123.7478,123.5900,123.4328,123.2763,123.1204,122.9653,122.8107,122.6569,122.5037,122.3511,122.1992,122.0480,121.8974,121.7474,121.5981,121.4494,121.3013,121.1538,121.0070,120.8608,120.7153,120.5703,120.4260,120.2822,120.1391,119.9966,119.8547,119.7134,119.5726,119.4325,119.2930,119.1540,119.0157,118.8779,118.7407,118.6041,118.4681,118.3326,118.1977,118.0634,117.9296,117.7964,117.6638,117.5317,117.4002,117.2692,117.1388,117.0089,116.8796,116.7508,116.6226,116.4949,116.3677,116.2411,116.1150,115.9894,115.8644,115.7399,115.6159,115.4924,115.3695,115.2470,115.1251,115.0037,114.8828,114.7624,114.6425,114.5231,114.4043,114.2859,114.1680,114.0506,113.9337,113.8173,113.7014,113.5860,113.4710,113.3566,113.2426,113.1291,113.0161,112.9035,112.7915,112.6799,112.5687,112.4581,112.3479,112.2381,112.1289,112.0201,111.9117,111.8038,111.6964,111.5894,111.4829,111.3768,111.2712,111.1660,111.0612,110.9569,110.8531,110.7497,110.6467,110.5441,110.4420,110.3403,110.2391,110.1383,110.0379,109.9379,109.8384,109.7393,109.6406,109.5423,109.4445,109.3470,109.2500,109.1534,109.0572,108.9614,108.8660,108.7711,108.6765,108.5824,108.4886,108.3953,108.3023,108.2098,108.1176,108.0259,107.9345,107.8435,107.7530,107.6628,107.5730,107.4836,107.3945,107.3059,107.2177,107.1298,107.0423,106.9552,106.8685,106.7821,106.6961,106.6105,106.5253,106.4404,106.3560,106.2718,106.1881,106.1047,106.0217,105.9391,105.8568,105.7749,105.6933,105.6121,105.5312,105.4508,105.3706,105.2909,105.2114,105.1324,105.0537,104.9753,104.8973,104.8196,104.7423,104.6653,104.5887,104.5124,104.4365,104.3609,104.2856,104.2107,104.1361,104.0619,103.9880,103.9144,103.8412,103.7683,103.6957,103.6235,103.5516,103.4800,103.4087,103.3378,103.2672,103.1969,103.1270,103.0574,102.9881,102.9191,102.8504,102.7821,102.7141,102.6464,102.5790,102.5119,102.4452,102.3787,102.3126,102.2468,102.1813,102.1161,102.0512,101.9867,101.9224,101.8584,101.7948,101.7315,101.6684,101.6057,101.5432,101.4811,101.4193,101.3577,101.2965,101.2356,101.1750,101.1146,101.0546,100.9948,100.9354,100.8762,100.8174,100.7588,100.7005,100.6425,100.5848,100.5274,100.4703,100.4135,100.3569,100.3007,100.2447,100.1890,100.1336,100.0785,100.0237,99.9691,99.9149,99.8609,99.8072,99.7537,99.7006,99.6477,99.5951,99.5428,99.4907,99.4390,99.3875,99.3363,99.2853,99.2346,99.1842,99.1341,99.0843,99.0347,98.9853,98.9363,98.8875,98.8390,98.7908,98.7428,98.6951,98.6476,98.6004,98.5535,98.5069,98.4605,98.4143,98.3685,98.3229,98.2775,98.2324,98.1876,98.1430,98.0987,98.0547,98.0109,97.9674,97.9241,97.8811,97.8383,97.7958,97.7535,97.7115,97.6698,97.6283,97.5870,97.5460,97.5053,97.4648,97.4245,97.3845,97.3448,97.3053,97.2661,97.2271,97.1883,97.1498,97.1116,97.0735,97.0358,96.9983,96.9610,96.9240,96.8872,96.8506,96.8143,96.7783,96.7425,96.7069,96.6715,96.6365,96.6016,96.5670,96.5326,96.4985,96.4646,96.4309,96.3975,96.3643,96.3314,96.2987,96.2662,96.2340,96.2020,96.1702,96.1387,96.1074,96.0763,96.0455,96.0149,95.9846,95.9544,95.9245,95.8949,95.8654,95.8362,95.8073,95.7785,95.7500,95.7218,95.6937,95.6659,95.6383];


plot (t, r,"b-",t, r1,"r--" )
xlabel ("t");
ylabel ("R");

dR = r-r1;
plot (t, dR,"b")

a=[30.2733,30.2237,30.1743,30.1251,30.0762,30.0275,29.9790,29.9307,29.8827,29.8348,29.7872,29.7398,29.6927,29.6457,29.5990,29.5524,29.5061,29.4600,29.4141,29.3684,29.3229,29.2776,29.2325,29.1876,29.1430,29.0985,29.0542,29.0101,28.9663,28.9226,28.8791,28.8358,28.7927,28.7498,28.7071,28.6645,28.6222,28.5801,28.5381,28.4963,28.4547,28.4133,28.3721,28.3311,28.2902,28.2495,28.2090,28.1687,28.1285,28.0886,28.0488,28.0092,27.9697,27.9304,27.8913,27.8524,27.8136,27.7751,27.7366,27.6984,27.6603,27.6224,27.5846,27.5470,27.5096,27.4723,27.4352,27.3983,27.3615,27.3248,27.2884,27.2521,27.2159,27.1799,27.1441,27.1084,27.0728,27.0375,27.0022,26.9671,26.9322,26.8974,26.8628,26.8283,26.7940,26.7598,26.7258,26.6919,26.6581,26.6245,26.5910,26.5577,26.5245,26.4915,26.4586,26.4259,26.3932,26.3608,26.3284,26.2962,26.2642,26.2322,26.2004,26.1688,26.1373,26.1059,26.0746,26.0435,26.0125,25.9816,25.9509,25.9203,25.8898,25.8595,25.8293,25.7992,25.7692,25.7394,25.7097,25.6801,25.6506,25.6213,25.5921,25.5630,25.5340,25.5052,25.4765,25.4479,25.4194,25.3910,25.3628,25.3347,25.3067,25.2788,25.2510,25.2234,25.1958,25.1684,25.1411,25.1139,25.0868,25.0599,25.0330,25.0063,24.9797,24.9532,24.9268,24.9005,24.8743,24.8482,24.8223,24.7964,24.7707,24.7450,24.7195,24.6941,24.6688,24.6436,24.6185,24.5935,24.5686,24.5438,24.5191,24.4946,24.4701,24.4457,24.4215,24.3973,24.3732,24.3493,24.3254,24.3017,24.2780,24.2544,24.2310,24.2076,24.1844,24.1612,24.1381,24.1152,24.0923,24.0695,24.0468,24.0243,24.0018,23.9794,23.9571,23.9349,23.9128,23.8908,23.8688,23.8470,23.8253,23.8036,23.7821,23.7606,23.7393,23.7180,23.6968,23.6757,23.6547,23.6338,23.6129,23.5922,23.5716,23.5510,23.5305,23.5101,23.4898,23.4696,23.4495,23.4295,23.4095,23.3896,23.3699,23.3502,23.3306,23.3110,23.2916,23.2722,23.2530,23.2338,23.2147,23.1956,23.1767,23.1578,23.1390,23.1203,23.1017,23.0832,23.0647,23.0464,23.0281,23.0099,22.9917,22.9737,22.9557,22.9378,22.9200,22.9023,22.8846,22.8670,22.8495,22.8321,22.8147,22.7975,22.7803,22.7632,22.7461,22.7291,22.7122,22.6954,22.6787,22.6620,22.6454,22.6289,22.6125,22.5961,22.5798,22.5636,22.5474,22.5314,22.5154,22.4994,22.4836,22.4678,22.4521,22.4364,22.4209,22.4054,22.3899,22.3746,22.3593,22.3441,22.3289,22.3139,22.2988,22.2839,22.2690,22.2542,22.2395,22.2249,22.2103,22.1957,22.1813,22.1669,22.1526,22.1383,22.1241,22.1100,22.0960,22.0820,22.0681,22.0542,22.0404,22.0267,22.0131,21.9995,21.9860,21.9725,21.9591,21.9458,21.9325,21.9193,21.9062,21.8931,21.8801,21.8672,21.8543,21.8415,21.8288,21.8161,21.8035,21.7909,21.7784,21.7660,21.7536,21.7413,21.7291,21.7169,21.7047,21.6927,21.6807,21.6687,21.6569,21.6451,21.6333,21.6216,21.6100,21.5984,21.5869,21.5754,21.5640,21.5527,21.5414,21.5302,21.5191,21.5080,21.4969,21.4860,21.4750,21.4642,21.4534,21.4426,21.4320,21.4213,21.4108,21.4002,21.3898,21.3794,21.3691,21.3588,21.3486,21.3384,21.3283,21.3182,21.3082,21.2983,21.2884,21.2786,21.2688,21.2591,21.2495,21.2399,21.2303,21.2208,21.2114,21.2020,21.1927,21.1834,21.1742,21.1651,21.1560,21.1469,21.1379,21.1290,21.1201,21.1113,21.1025,21.0938,21.0851,21.0765,21.0679,21.0594,21.0510,21.0426,21.0342,21.0259,21.0177,21.0095,21.0014,20.9933,20.9853,20.9773,20.9694,20.9615,20.9537,20.9459,20.9382,20.9305,20.9229,20.9154,20.9079,20.9004,20.8930,20.8857,20.8784,20.8711,20.8639,20.8568,20.8497,20.8426,20.8356,20.8287,20.8218,20.8150,20.8082,20.8015,20.7948,20.7881,20.7815,20.7750,20.7685,20.7621,20.7557,20.7494,20.7431,20.7368,20.7307,20.7245,20.7184,20.7124,20.7064,20.7005];

plot (t, a,"r")

a1=[31.7179,31.6659,31.6142,31.5627,31.5114,31.4604,31.4095,31.3590,31.3086,31.2585,31.2086,31.1590,31.1096,31.0604,31.0114,30.9626,30.9141,30.8658,30.8177,30.7698,30.7221,30.6747,30.6275,30.5804,30.5336,30.4870,30.4406,30.3945,30.3485,30.3027,30.2572,30.2118,30.1666,30.1217,30.0769,30.0324,29.9880,29.9439,29.8999,29.8561,29.8126,29.7692,29.7260,29.6830,29.6402,29.5975,29.5551,29.5129,29.4708,29.4289,29.3872,29.3457,29.3044,29.2632,29.2223,29.1815,29.1409,29.1004,29.0602,29.0201,28.9802,28.9405,28.9009,28.8615,28.8223,28.7833,28.7444,28.7057,28.6671,28.6287,28.5905,28.5525,28.5146,28.4769,28.4393,28.4019,28.3647,28.3276,28.2907,28.2540,28.2174,28.1809,28.1447,28.1085,28.0726,28.0367,28.0011,27.9656,27.9302,27.8950,27.8599,27.8250,27.7903,27.7556,27.7212,27.6869,27.6527,27.6187,27.5848,27.5510,27.5174,27.4840,27.4507,27.4175,27.3845,27.3516,27.3188,27.2862,27.2538,27.2214,27.1892,27.1572,27.1252,27.0934,27.0618,27.0303,26.9989,26.9676,26.9365,26.9055,26.8746,26.8439,26.8133,26.7828,26.7525,26.7223,26.6922,26.6622,26.6324,26.6026,26.5731,26.5436,26.5143,26.4850,26.4559,26.4270,26.3981,26.3694,26.3408,26.3123,26.2839,26.2557,26.2276,26.1996,26.1717,26.1439,26.1162,26.0887,26.0613,26.0339,26.0067,25.9797,25.9527,25.9258,25.8991,25.8725,25.8460,25.8195,25.7932,25.7671,25.7410,25.7150,25.6892,25.6634,25.6378,25.6123,25.5868,25.5615,25.5363,25.5112,25.4862,25.4613,25.4365,25.4118,25.3873,25.3628,25.3384,25.3141,25.2900,25.2659,25.2419,25.2181,25.1943,25.1707,25.1471,25.1236,25.1003,25.0770,25.0539,25.0308,25.0078,24.9850,24.9622,24.9395,24.9169,24.8944,24.8721,24.8498,24.8276,24.8055,24.7835,24.7615,24.7397,24.7180,24.6964,24.6748,24.6534,24.6320,24.6107,24.5896,24.5685,24.5475,24.5266,24.5058,24.4850,24.4644,24.4439,24.4234,24.4030,24.3827,24.3625,24.3424,24.3224,24.3025,24.2826,24.2629,24.2432,24.2236,24.2041,24.1847,24.1654,24.1461,24.1270,24.1079,24.0889,24.0700,24.0511,24.0324,24.0137,23.9951,23.9766,23.9582,23.9399,23.9216,23.9034,23.8853,23.8673,23.8494,23.8315,23.8137,23.7960,23.7784,23.7609,23.7434,23.7260,23.7087,23.6915,23.6744,23.6573,23.6403,23.6234,23.6065,23.5898,23.5731,23.5565,23.5399,23.5235,23.5071,23.4908,23.4745,23.4584,23.4423,23.4262,23.4103,23.3944,23.3786,23.3629,23.3473,23.3317,23.3162,23.3008,23.2854,23.2701,23.2549,23.2397,23.2247,23.2097,23.1947,23.1799,23.1651,23.1504,23.1357,23.1211,23.1066,23.0922,23.0778,23.0635,23.0493,23.0351,23.0210,23.0070,22.9930,22.9791,22.9653,22.9515,22.9379,22.9242,22.9107,22.8972,22.8838,22.8704,22.8571,22.8439,22.8307,22.8176,22.8046,22.7917,22.7788,22.7659,22.7532,22.7405,22.7278,22.7153,22.7027,22.6903,22.6779,22.6656,22.6534,22.6412,22.6290,22.6170,22.6050,22.5930,22.5812,22.5694,22.5576,22.5459,22.5343,22.5227,22.5112,22.4998,22.4884,22.4771,22.4658,22.4547,22.4435,22.4325,22.4214,22.4105,22.3996,22.3888,22.3780,22.3673,22.3566,22.3460,22.3355,22.3250,22.3146,22.3043,22.2940,22.2838,22.2736,22.2635,22.2534,22.2434,22.2335,22.2236,22.2137,22.2040,22.1943,22.1846,22.1750,22.1655,22.1560,22.1466,22.1372,22.1279,22.1187,22.1095,22.1003,22.0912,22.0822,22.0733,22.0643,22.0555,22.0467,22.0379,22.0293,22.0206,22.0120,22.0035,21.9951,21.9866,21.9783,21.9700,21.9617,21.9536,21.9454,21.9373,21.9293,21.9213,21.9134,21.9056,21.8977,21.8900,21.8823,21.8746,21.8671,21.8595,21.8520,21.8446,21.8372,21.8299,21.8226,21.8154,21.8082,21.8011,21.7941,21.7871,21.7801,21.7732,21.7664,21.7596,21.7528,21.7461,21.7395,21.7329,21.7264,21.7199,21.7135,21.7071,21.7008,21.6945,21.6883]

plot (t,dR,"b--",t,a,"r-.",t, a1,"g--")

xlabel ("t");
ylabel ("R");
legend("dR","a1","a2")

